Lab3/Q2/qb_tb.vcd
$date
	Thu Sep  8 09:32:52 2022
$end
$version
	Icarus Verilog
$end
$timescale
	1ns
$end
$scope module qb_tb $end
$var wire 1 ! f $end
$var reg 1 " A $end
$var reg 1 # B $end
$var reg 1 $ C $end
$var reg 1 % D $end
$scope module qb $end
$var wire 1 " A $end
$var wire 1 # B $end
$var wire 1 $ C $end
$var wire 1 % D $end
$var wire 1 ! f $end
$var wire 1 & g $end
$upscope $end
$upscope $end
$enddefinitions $end
#0
$dumpvars
0&
0%
0$
0#
0"
1!
$end
#20
1%
#40
0%
1$
#60
0!
1&
1%
#80
0%
0$
1#
#100
1!
0&
1%
#120
0!
1&
0%
1$
#140
1%
#160
1!
0&
0%
0$
0#
1"
#180
1%
#200
0%
1$
#220
0!
1&
1%
#240
0%
0$
1#
#260
1%
#280
0%
1$
#300
1%
